{"frames": {

"wall0000":
{
	"frame": {"x":0,"y":0,"w":157,"h":200},
	"rotated": false,
	"trimmed": false,
	"spriteSourceSize": {"x":0,"y":0,"w":157,"h":200},
	"sourceSize": {"w":157,"h":200}
},
"wall0001":
{
	"frame": {"x":157,"y":0,"w":157,"h":200},
	"rotated": false,
	"trimmed": false,
	"spriteSourceSize": {"x":0,"y":0,"w":157,"h":200},
	"sourceSize": {"w":157,"h":200}
},
"wall0002":
{
	"frame": {"x":314,"y":0,"w":157,"h":200},
	"rotated": false,
	"trimmed": false,
	"spriteSourceSize": {"x":0,"y":0,"w":157,"h":200},
	"sourceSize": {"w":157,"h":200}
}},
"meta": {
	"app": "Adobe Flash CS6",
	"version": "12.0.0.481",
	"image": "wall_1.png",
	"format": "RGBA8888",
	"size": {"w":488,"h":211},
	"scale": "1"
}
}
